EESchema Schematic File Version 4
EELAYER 30 0
EELAYER END
$Descr USLetter 11000 8500
encoding utf-8
Sheet 1 1
Title ""
Date "2019-12-11"
Rev ""
Comp ""
Comment1 ""
Comment2 ""
Comment3 ""
Comment4 ""
$EndDescr
$Comp
L connector:H9VFF P1
U 1 1 5DF15D33
P 2050 2400
F 0 "P1" H 2142 2473 50  0000 C CNN
F 1 "H9VFF" H 2050 2550 50  0001 L CNN
F 2 "Connector_Hirose:Hirose_DF13C_CL535-0403-5-51_1x03-1MP_P1.25mm_Vertical" H 2050 2450 50  0001 L CNN
F 3 "" V 2300 2400 50  0001 C CNN
	1    2050 2400
	-1   0    0    -1  
$EndComp
$Comp
L power:GND #PWR0101
U 1 1 5DF162D2
P 2150 2600
F 0 "#PWR0101" H 2150 2350 50  0001 C CNN
F 1 "GND" V 2155 2472 50  0000 R CNN
F 2 "" H 2150 2600 50  0001 C CNN
F 3 "" H 2150 2600 50  0001 C CNN
	1    2150 2600
	0    -1   -1   0   
$EndComp
$Comp
L power:+3V3 #PWR0102
U 1 1 5DF1678B
P 2150 2500
F 0 "#PWR0102" H 2150 2350 50  0001 C CNN
F 1 "+3V3" V 2165 2628 50  0000 L CNN
F 2 "" H 2150 2500 50  0001 C CNN
F 3 "" H 2150 2500 50  0001 C CNN
	1    2150 2500
	0    1    1    0   
$EndComp
$Comp
L power:-5V #PWR0103
U 1 1 5DF16BAE
P 2150 2700
F 0 "#PWR0103" H 2150 2800 50  0001 C CNN
F 1 "-5V" V 2165 2828 50  0000 L CNN
F 2 "" H 2150 2700 50  0001 C CNN
F 3 "" H 2150 2700 50  0001 C CNN
	1    2150 2700
	0    1    1    0   
$EndComp
$Comp
L connector:DC3YR P2
U 1 1 5DF16F9D
P 8450 3350
F 0 "P2" H 8778 3050 50  0000 L CNN
F 1 "DC3YR" H 8450 3400 50  0001 L CNN
F 2 "Connector_Hirose:Hirose_DF13C_CL535-0404-8-51_1x04-1MP_P1.25mm_Vertical" H 8450 3400 50  0001 L CNN
F 3 "" V 8700 3350 50  0001 C CNN
	1    8450 3350
	1    0    0    -1  
$EndComp
Text Label 8100 3450 0    50   ~ 0
p0
Text Label 8100 3550 0    50   ~ 0
p1
$Comp
L power:GND #PWR0104
U 1 1 5DF18E70
P 8350 3650
F 0 "#PWR0104" H 8350 3400 50  0001 C CNN
F 1 "GND" V 8355 3522 50  0000 R CNN
F 2 "" H 8350 3650 50  0001 C CNN
F 3 "" H 8350 3650 50  0001 C CNN
	1    8350 3650
	0    1    1    0   
$EndComp
Text Label 8100 3750 0    50   ~ 0
com
$Comp
L connector:QPKY8 P3
U 1 1 5DF19D24
P 2050 3050
F 0 "P3" H 2142 3123 50  0000 C CNN
F 1 "QPKY8" H 2050 3200 50  0001 L CNN
F 2 "Connector_Hirose:Hirose_DF13C_CL535-0402-2-51_1x02-1MP_P1.25mm_Vertical" H 2050 3100 50  0001 L CNN
F 3 "" V 2300 3050 50  0001 C CNN
	1    2050 3050
	-1   0    0    -1  
$EndComp
Text Label 2400 3150 2    50   ~ 0
s
$Comp
L power:GND #PWR0106
U 1 1 5DF1B0FA
P 2150 3250
F 0 "#PWR0106" H 2150 3000 50  0001 C CNN
F 1 "GND" V 2155 3122 50  0000 R CNN
F 2 "" H 2150 3250 50  0001 C CNN
F 3 "" H 2150 3250 50  0001 C CNN
	1    2150 3250
	0    -1   -1   0   
$EndComp
$Comp
L Device:R R1
U 1 1 5DF1B3AD
P 7950 4000
F 0 "R1" H 8020 4046 50  0000 L CNN
F 1 "360" H 8020 3955 50  0000 L CNN
F 2 "kicad_pcb:R_1206_3216Metric" V 7880 4000 50  0001 C CNN
F 3 "~" H 7950 4000 50  0001 C CNN
	1    7950 4000
	1    0    0    -1  
$EndComp
$Comp
L power:GND #PWR0107
U 1 1 5DF1B7D6
P 7950 4150
F 0 "#PWR0107" H 7950 3900 50  0001 C CNN
F 1 "GND" H 7955 3977 50  0000 C CNN
F 2 "" H 7950 4150 50  0001 C CNN
F 3 "" H 7950 4150 50  0001 C CNN
	1    7950 4150
	1    0    0    -1  
$EndComp
Wire Wire Line
	7950 3750 7950 3850
Wire Wire Line
	7950 3750 8350 3750
$Comp
L Device:C C2
U 1 1 5DF1BD2F
P 2600 1750
F 0 "C2" H 2715 1796 50  0000 L CNN
F 1 "10 uF" H 2715 1705 50  0000 L CNN
F 2 "Capacitor_SMD:C_0805_2012Metric" H 2638 1600 50  0001 C CNN
F 3 "~" H 2600 1750 50  0001 C CNN
	1    2600 1750
	1    0    0    -1  
$EndComp
$Comp
L power:GND #PWR0108
U 1 1 5DF1C005
P 2600 1900
F 0 "#PWR0108" H 2600 1650 50  0001 C CNN
F 1 "GND" H 2605 1727 50  0000 C CNN
F 2 "" H 2600 1900 50  0001 C CNN
F 3 "" H 2600 1900 50  0001 C CNN
	1    2600 1900
	1    0    0    -1  
$EndComp
$Comp
L Device:C C3
U 1 1 5DF1CE0E
P 3100 1750
F 0 "C3" H 3215 1796 50  0000 L CNN
F 1 "10 uF" H 3215 1705 50  0000 L CNN
F 2 "Capacitor_SMD:C_0805_2012Metric" H 3138 1600 50  0001 C CNN
F 3 "~" H 3100 1750 50  0001 C CNN
	1    3100 1750
	1    0    0    -1  
$EndComp
$Comp
L power:GND #PWR0109
U 1 1 5DF1CE18
P 3100 1900
F 0 "#PWR0109" H 3100 1650 50  0001 C CNN
F 1 "GND" H 3105 1727 50  0000 C CNN
F 2 "" H 3100 1900 50  0001 C CNN
F 3 "" H 3100 1900 50  0001 C CNN
	1    3100 1900
	1    0    0    -1  
$EndComp
$Comp
L Analog_Switch:CD4053B U1
U 1 1 5DF1E5EC
P 3700 3650
F 0 "U1" H 3400 4400 50  0000 C CNN
F 1 "CD4053B" H 3500 4300 50  0000 C CNN
F 2 "kicad_pcb:TSSOP-16_4.4x5mm_P0.65mm" H 3850 2900 50  0001 L CNN
F 3 "http://www.ti.com/lit/ds/symlink/cd4052b.pdf" H 3680 3850 50  0001 C CNN
	1    3700 3650
	1    0    0    -1  
$EndComp
Wire Wire Line
	2150 3150 2750 3150
Wire Wire Line
	3200 3350 3150 3350
Wire Wire Line
	3150 3350 3150 3250
Connection ~ 3150 3150
Wire Wire Line
	3150 3150 3200 3150
Wire Wire Line
	3200 3250 3150 3250
Connection ~ 3150 3250
Wire Wire Line
	3150 3250 3150 3150
$Comp
L power:GND #PWR0112
U 1 1 5DF2587B
P 3700 4350
F 0 "#PWR0112" H 3700 4100 50  0001 C CNN
F 1 "GND" V 3700 4150 50  0000 C CNN
F 2 "" H 3700 4350 50  0001 C CNN
F 3 "" H 3700 4350 50  0001 C CNN
	1    3700 4350
	1    0    0    -1  
$EndComp
$Comp
L power:-5V #PWR0113
U 1 1 5DF25CD0
P 3600 4350
F 0 "#PWR0113" H 3600 4450 50  0001 C CNN
F 1 "-5V" V 3600 4550 50  0000 C CNN
F 2 "" H 3600 4350 50  0001 C CNN
F 3 "" H 3600 4350 50  0001 C CNN
	1    3600 4350
	-1   0    0    1   
$EndComp
$Comp
L power:+3V3 #PWR0114
U 1 1 5DF26DED
P 3800 2950
F 0 "#PWR0114" H 3800 2800 50  0001 C CNN
F 1 "+3V3" H 3815 3123 50  0000 C CNN
F 2 "" H 3800 2950 50  0001 C CNN
F 3 "" H 3800 2950 50  0001 C CNN
	1    3800 2950
	1    0    0    -1  
$EndComp
Text Label 4450 3450 2    50   ~ 0
opp1
Text Label 4450 3550 2    50   ~ 0
opp0
Text Label 2950 3450 0    50   ~ 0
pd
Text Label 2950 3750 0    50   ~ 0
g0
Wire Wire Line
	3200 4050 2950 4050
Text Label 2950 4050 0    50   ~ 0
g1
$Comp
L power:GND #PWR0115
U 1 1 5DF3534B
P 3200 4150
F 0 "#PWR0115" H 3200 3900 50  0001 C CNN
F 1 "GND" V 3200 3950 50  0000 C CNN
F 2 "" H 3200 4150 50  0001 C CNN
F 3 "" H 3200 4150 50  0001 C CNN
	1    3200 4150
	1    0    0    -1  
$EndComp
$Comp
L power:GND #PWR0116
U 1 1 5DF36DCF
P 4200 3750
F 0 "#PWR0116" H 4200 3500 50  0001 C CNN
F 1 "GND" V 4200 3550 50  0000 C CNN
F 2 "" H 4200 3750 50  0001 C CNN
F 3 "" H 4200 3750 50  0001 C CNN
	1    4200 3750
	0    -1   -1   0   
$EndComp
$Comp
L power:GND #PWR0117
U 1 1 5DF37277
P 4200 4150
F 0 "#PWR0117" H 4200 3900 50  0001 C CNN
F 1 "GND" V 4200 3950 50  0000 C CNN
F 2 "" H 4200 4150 50  0001 C CNN
F 3 "" H 4200 4150 50  0001 C CNN
	1    4200 4150
	0    -1   -1   0   
$EndComp
$Comp
L power:-5V #PWR0118
U 1 1 5DF381ED
P 4200 3850
F 0 "#PWR0118" H 4200 3950 50  0001 C CNN
F 1 "-5V" V 4200 4050 50  0000 C CNN
F 2 "" H 4200 3850 50  0001 C CNN
F 3 "" H 4200 3850 50  0001 C CNN
	1    4200 3850
	0    1    1    0   
$EndComp
Wire Wire Line
	4200 3850 4200 4050
Connection ~ 4200 3850
$Comp
L ic:QDC4F U2
U 1 1 5DF3AD06
P 5750 4300
F 0 "U2" H 5750 4350 50  0000 L CNN
F 1 "QDC4F" H 5800 4100 50  0000 L CNN
F 2 "kicad_pcb:MSOP-8_3x3mm_P0.65mm" H 6050 4350 50  0001 L CNN
F 3 "$PARTS/QDC4F/MCP6L91.pdf" V 6000 4300 50  0001 C CNN
	1    5750 4300
	1    0    0    -1  
$EndComp
$Comp
L ic:QDC4F U2
U 2 1 5DF3B348
P 5750 3250
F 0 "U2" H 5675 3565 50  0000 C CNN
F 1 "QDC4F" H 5675 3474 50  0000 C CNN
F 2 "kicad_pcb:MSOP-8_3x3mm_P0.65mm" H 6050 3300 50  0001 L CNN
F 3 "$PARTS/QDC4F/MCP6L91.pdf" V 6000 3250 50  0001 C CNN
	2    5750 3250
	1    0    0    -1  
$EndComp
$Comp
L power:+3V3 #PWR0119
U 1 1 5DF46879
P 5700 4150
F 0 "#PWR0119" H 5700 4000 50  0001 C CNN
F 1 "+3V3" H 5715 4323 50  0000 C CNN
F 2 "" H 5700 4150 50  0001 C CNN
F 3 "" H 5700 4150 50  0001 C CNN
	1    5700 4150
	1    0    0    -1  
$EndComp
$Comp
L power:GND #PWR0120
U 1 1 5DF46C82
P 5700 4650
F 0 "#PWR0120" H 5700 4400 50  0001 C CNN
F 1 "GND" V 5700 4450 50  0000 C CNN
F 2 "" H 5700 4650 50  0001 C CNN
F 3 "" H 5700 4650 50  0001 C CNN
	1    5700 4650
	1    0    0    -1  
$EndComp
Wire Wire Line
	4200 3450 4750 3450
Wire Wire Line
	4200 3550 4550 3550
Wire Wire Line
	4550 4500 4750 4500
Wire Wire Line
	4550 3550 4550 4500
Text Label 5350 3200 1    50   ~ 0
opn1
Text Label 5350 4250 1    50   ~ 0
opn0
$Comp
L Device:C C12
U 1 1 5DF49CE2
P 5700 3850
F 0 "C12" V 5448 3850 50  0000 C CNN
F 1 "1 nF" V 5539 3850 50  0000 C CNN
F 2 "kicad_pcb:C_0402_1005Metric" H 5738 3700 50  0001 C CNN
F 3 "~" H 5700 3850 50  0001 C CNN
	1    5700 3850
	0    1    1    0   
$EndComp
$Comp
L Device:C C13
U 1 1 5DF4AB15
P 5700 2800
F 0 "C13" V 5448 2800 50  0000 C CNN
F 1 "1 nF" V 5539 2800 50  0000 C CNN
F 2 "kicad_pcb:C_0402_1005Metric" H 5738 2650 50  0001 C CNN
F 3 "~" H 5700 2800 50  0001 C CNN
	1    5700 2800
	0    1    1    0   
$EndComp
Wire Wire Line
	5400 3250 5350 3250
Wire Wire Line
	5350 3250 5350 2800
Wire Wire Line
	5350 2800 5550 2800
Wire Wire Line
	5400 4300 5350 4300
Wire Wire Line
	5350 4300 5350 3850
Wire Wire Line
	5350 3850 5550 3850
Wire Wire Line
	5950 4400 6000 4400
Wire Wire Line
	6000 4400 6000 3850
Wire Wire Line
	6000 3850 5850 3850
Wire Wire Line
	5950 3350 6000 3350
Wire Wire Line
	6000 3350 6000 2800
Wire Wire Line
	6000 2800 5850 2800
Text Label 6000 3200 1    50   ~ 0
opo1
Text Label 6000 4250 1    50   ~ 0
opo0
$Comp
L Device:R R10
U 1 1 5DF50773
P 7050 3950
F 0 "R10" H 7120 3996 50  0000 L CNN
F 1 "10" H 7120 3905 50  0000 L CNN
F 2 "kicad_pcb:R_1206_3216Metric" V 6980 3950 50  0001 C CNN
F 3 "~" H 7050 3950 50  0001 C CNN
	1    7050 3950
	1    0    0    -1  
$EndComp
$Comp
L Device:R R11
U 1 1 5DF50F2F
P 7050 2750
F 0 "R11" H 7120 2796 50  0000 L CNN
F 1 "10" H 7120 2705 50  0000 L CNN
F 2 "kicad_pcb:R_1206_3216Metric" V 6980 2750 50  0001 C CNN
F 3 "~" H 7050 2750 50  0001 C CNN
	1    7050 2750
	1    0    0    -1  
$EndComp
$Comp
L power:+3V3 #PWR0121
U 1 1 5DF514B2
P 7050 3800
F 0 "#PWR0121" H 7050 3650 50  0001 C CNN
F 1 "+3V3" H 7065 3973 50  0000 C CNN
F 2 "" H 7050 3800 50  0001 C CNN
F 3 "" H 7050 3800 50  0001 C CNN
	1    7050 3800
	1    0    0    -1  
$EndComp
$Comp
L power:+3V3 #PWR0122
U 1 1 5DF519B3
P 7050 2600
F 0 "#PWR0122" H 7050 2450 50  0001 C CNN
F 1 "+3V3" H 7065 2773 50  0000 C CNN
F 2 "" H 7050 2600 50  0001 C CNN
F 3 "" H 7050 2600 50  0001 C CNN
	1    7050 2600
	1    0    0    -1  
$EndComp
Text Label 7050 3050 1    50   ~ 0
e1
$Comp
L Device:R R13
U 1 1 5DF56233
P 5050 3050
F 0 "R13" H 5120 3096 50  0000 L CNN
F 1 "1 k" H 5120 3005 50  0000 L CNN
F 2 "kicad_pcb:R_0402_1005Metric" V 4980 3050 50  0001 C CNN
F 3 "~" H 5050 3050 50  0001 C CNN
	1    5050 3050
	1    0    0    -1  
$EndComp
$Comp
L Device:R R12
U 1 1 5DF59E3C
P 5050 4100
F 0 "R12" H 5120 4146 50  0000 L CNN
F 1 "1 k" H 5120 4055 50  0000 L CNN
F 2 "kicad_pcb:R_0402_1005Metric" V 4980 4100 50  0001 C CNN
F 3 "~" H 5050 4100 50  0001 C CNN
	1    5050 4100
	1    0    0    -1  
$EndComp
Wire Wire Line
	5350 4300 5050 4300
Wire Wire Line
	5050 4300 5050 4250
Connection ~ 5350 4300
Wire Wire Line
	5350 3250 5050 3250
Wire Wire Line
	5050 3250 5050 3200
Connection ~ 5350 3250
Text Label 5050 3950 1    50   ~ 0
e0
Text Label 5050 2900 1    50   ~ 0
e1
$Comp
L Device:R R15
U 1 1 5DF5D9C9
P 6400 3350
F 0 "R15" V 6193 3350 50  0000 C CNN
F 1 "1 k" V 6284 3350 50  0000 C CNN
F 2 "kicad_pcb:R_0402_1005Metric" V 6330 3350 50  0001 C CNN
F 3 "~" H 6400 3350 50  0001 C CNN
	1    6400 3350
	0    1    1    0   
$EndComp
$Comp
L Device:R R14
U 1 1 5DF5DF32
P 6400 4400
F 0 "R14" V 6193 4400 50  0000 C CNN
F 1 "1 k" V 6284 4400 50  0000 C CNN
F 2 "kicad_pcb:R_0402_1005Metric" V 6330 4400 50  0001 C CNN
F 3 "~" H 6400 4400 50  0001 C CNN
	1    6400 4400
	0    1    1    0   
$EndComp
Wire Wire Line
	6250 3350 6000 3350
Connection ~ 6000 3350
Wire Wire Line
	6250 4400 6000 4400
Connection ~ 6000 4400
Text Label 6600 3350 0    50   ~ 0
b1
Text Label 6600 4400 0    50   ~ 0
b0
$Comp
L Device:R R16
U 1 1 5DF6B913
P 4750 4300
F 0 "R16" H 4680 4254 50  0000 R CNN
F 1 "10 k" H 4680 4345 50  0000 R CNN
F 2 "kicad_pcb:R_0402_1005Metric" V 4680 4300 50  0001 C CNN
F 3 "~" H 4750 4300 50  0001 C CNN
	1    4750 4300
	-1   0    0    1   
$EndComp
$Comp
L Device:R R17
U 1 1 5DF6BE60
P 4750 3250
F 0 "R17" H 4680 3204 50  0000 R CNN
F 1 "10 k" H 4680 3295 50  0000 R CNN
F 2 "kicad_pcb:R_0402_1005Metric" V 4680 3250 50  0001 C CNN
F 3 "~" H 4750 3250 50  0001 C CNN
	1    4750 3250
	-1   0    0    1   
$EndComp
$Comp
L power:+3V3 #PWR0123
U 1 1 5DF6C266
P 4750 3100
F 0 "#PWR0123" H 4750 2950 50  0001 C CNN
F 1 "+3V3" H 4765 3273 50  0000 C CNN
F 2 "" H 4750 3100 50  0001 C CNN
F 3 "" H 4750 3100 50  0001 C CNN
	1    4750 3100
	1    0    0    -1  
$EndComp
$Comp
L Device:R R18
U 1 1 5DF7435E
P 2550 3700
F 0 "R18" H 2620 3746 50  0000 L CNN
F 1 "23 k" H 2620 3655 50  0000 L CNN
F 2 "kicad_pcb:R_0402_1005Metric" V 2480 3700 50  0001 C CNN
F 3 "~" H 2550 3700 50  0001 C CNN
	1    2550 3700
	1    0    0    -1  
$EndComp
$Comp
L power:GND #PWR0125
U 1 1 5DF74DCE
P 2550 3850
F 0 "#PWR0125" H 2550 3600 50  0001 C CNN
F 1 "GND" V 2550 3650 50  0000 C CNN
F 2 "" H 2550 3850 50  0001 C CNN
F 3 "" H 2550 3850 50  0001 C CNN
	1    2550 3850
	1    0    0    -1  
$EndComp
Wire Wire Line
	2550 3450 2550 3550
Wire Wire Line
	2550 3450 3200 3450
$Comp
L Device:R R19
U 1 1 5DF79743
P 2750 2950
F 0 "R19" H 2680 2904 50  0000 R CNN
F 1 "10 k" H 2680 2995 50  0000 R CNN
F 2 "kicad_pcb:R_0402_1005Metric" V 2680 2950 50  0001 C CNN
F 3 "~" H 2750 2950 50  0001 C CNN
	1    2750 2950
	-1   0    0    1   
$EndComp
$Comp
L power:+3V3 #PWR0126
U 1 1 5DF79E2E
P 2750 2800
F 0 "#PWR0126" H 2750 2650 50  0001 C CNN
F 1 "+3V3" H 2765 2973 50  0000 C CNN
F 2 "" H 2750 2800 50  0001 C CNN
F 3 "" H 2750 2800 50  0001 C CNN
	1    2750 2800
	1    0    0    -1  
$EndComp
Wire Wire Line
	2750 3100 2750 3150
Connection ~ 2750 3150
Wire Wire Line
	2750 3150 3150 3150
$Comp
L transistor:2VPMH Q11
U 1 1 5DF7EE56
P 4950 5550
F 0 "Q11" H 5000 5890 50  0000 C CNN
F 1 "2VPMH" H 4800 5900 50  0001 L BNN
F 2 "kicad_pcb:SOT-23" H 4800 5850 50  0001 L BNN
F 3 "$PARTS/2VPMH/irfml8244pbf.pdf" H 5000 5700 50  0001 C CNN
	1    4950 5550
	1    0    0    -1  
$EndComp
$Comp
L transistor:2VPMH Q10
U 1 1 5DF810B4
P 4950 6100
F 0 "Q10" H 5000 6440 50  0000 C CNN
F 1 "2VPMH" H 4800 6450 50  0001 L BNN
F 2 "kicad_pcb:SOT-23" H 4800 6400 50  0001 L BNN
F 3 "$PARTS/2VPMH/irfml8244pbf.pdf" H 5000 6250 50  0001 C CNN
	1    4950 6100
	1    0    0    -1  
$EndComp
Wire Wire Line
	4900 5550 2950 5550
Wire Wire Line
	2950 5550 2950 4050
Wire Wire Line
	2850 3750 2850 6100
Wire Wire Line
	2850 6100 4900 6100
Wire Wire Line
	2850 3750 3200 3750
$Comp
L power:-5V #PWR0127
U 1 1 5DF8C3EC
P 5150 6150
F 0 "#PWR0127" H 5150 6250 50  0001 C CNN
F 1 "-5V" V 5150 6350 50  0000 C CNN
F 2 "" H 5150 6150 50  0001 C CNN
F 3 "" H 5150 6150 50  0001 C CNN
	1    5150 6150
	-1   0    0    1   
$EndComp
Wire Wire Line
	5150 6150 5150 6100
Wire Wire Line
	5150 5550 5100 5550
Wire Wire Line
	5100 6100 5150 6100
Connection ~ 5150 6100
Wire Wire Line
	5150 6100 5150 5550
Wire Wire Line
	5100 5850 7650 5850
Wire Wire Line
	7650 5850 7650 4600
Wire Wire Line
	7650 3450 8350 3450
Wire Wire Line
	5100 5300 7750 5300
Wire Wire Line
	7750 3550 8350 3550
Wire Wire Line
	7050 3150 7050 2950
Wire Wire Line
	7050 2950 6700 2950
Wire Wire Line
	6700 2950 6700 2400
Wire Wire Line
	6700 2400 5050 2400
Wire Wire Line
	5050 2400 5050 2900
Connection ~ 7050 2950
Wire Wire Line
	7050 2950 7050 2900
Wire Wire Line
	7050 4200 7050 4150
Wire Wire Line
	7050 4150 6650 4150
Wire Wire Line
	6650 4150 6650 3550
Wire Wire Line
	6650 3550 5600 3550
Wire Wire Line
	5600 3550 5600 3750
Wire Wire Line
	5600 3750 5050 3750
Wire Wire Line
	5050 3750 5050 3950
Connection ~ 7050 4150
Wire Wire Line
	7050 4150 7050 4100
Wire Wire Line
	6750 3350 6550 3350
Wire Wire Line
	7050 4600 7650 4600
Connection ~ 7650 4600
Connection ~ 7750 3550
Wire Wire Line
	7750 3550 7750 5300
Wire Wire Line
	7050 3550 7750 3550
Wire Wire Line
	7650 3450 7650 4600
Wire Wire Line
	6750 4400 6550 4400
$Comp
L power:GND #PWR0128
U 1 1 5DFF2E2E
P 1250 5050
F 0 "#PWR0128" H 1250 4800 50  0001 C CNN
F 1 "GND" H 1255 4877 50  0000 C CNN
F 2 "" H 1250 5050 50  0001 C CNN
F 3 "" H 1250 5050 50  0001 C CNN
	1    1250 5050
	1    0    0    -1  
$EndComp
$Comp
L power:PWR_FLAG #FLG0101
U 1 1 5DFF3842
P 1250 5050
F 0 "#FLG0101" H 1250 5125 50  0001 C CNN
F 1 "PWR_FLAG" H 1250 5223 50  0000 C CNN
F 2 "" H 1250 5050 50  0001 C CNN
F 3 "~" H 1250 5050 50  0001 C CNN
	1    1250 5050
	1    0    0    -1  
$EndComp
$Comp
L power:-5V #PWR0111
U 1 1 5DF1DF26
P 2600 1600
F 0 "#PWR0111" H 2600 1700 50  0001 C CNN
F 1 "-5V" H 2615 1773 50  0000 C CNN
F 2 "" H 2600 1600 50  0001 C CNN
F 3 "" H 2600 1600 50  0001 C CNN
	1    2600 1600
	1    0    0    -1  
$EndComp
$Comp
L power:+3V3 #PWR0110
U 1 1 5DF1CE22
P 3100 1600
F 0 "#PWR0110" H 3100 1450 50  0001 C CNN
F 1 "+3V3" H 3115 1773 50  0000 C CNN
F 2 "" H 3100 1600 50  0001 C CNN
F 3 "" H 3100 1600 50  0001 C CNN
	1    3100 1600
	1    0    0    -1  
$EndComp
$Comp
L power:-5V #PWR0129
U 1 1 5DFFD49D
P 1600 5000
F 0 "#PWR0129" H 1600 5100 50  0001 C CNN
F 1 "-5V" H 1615 5173 50  0000 C CNN
F 2 "" H 1600 5000 50  0001 C CNN
F 3 "" H 1600 5000 50  0001 C CNN
	1    1600 5000
	1    0    0    -1  
$EndComp
$Comp
L power:+3V3 #PWR0130
U 1 1 5DFFD4A7
P 2100 5000
F 0 "#PWR0130" H 2100 4850 50  0001 C CNN
F 1 "+3V3" H 2115 5173 50  0000 C CNN
F 2 "" H 2100 5000 50  0001 C CNN
F 3 "" H 2100 5000 50  0001 C CNN
	1    2100 5000
	1    0    0    -1  
$EndComp
$Comp
L power:PWR_FLAG #FLG0102
U 1 1 5E003FA0
P 1600 5000
F 0 "#FLG0102" H 1600 5075 50  0001 C CNN
F 1 "PWR_FLAG" H 1600 5173 50  0000 C CNN
F 2 "" H 1600 5000 50  0001 C CNN
F 3 "~" H 1600 5000 50  0001 C CNN
	1    1600 5000
	-1   0    0    1   
$EndComp
$Comp
L power:PWR_FLAG #FLG0103
U 1 1 5E004485
P 2100 5000
F 0 "#FLG0103" H 2100 5075 50  0001 C CNN
F 1 "PWR_FLAG" H 2100 5173 50  0000 C CNN
F 2 "" H 2100 5000 50  0001 C CNN
F 3 "~" H 2100 5000 50  0001 C CNN
	1    2100 5000
	-1   0    0    1   
$EndComp
$Comp
L Transistor_BJT:MMBT3906 Q13
U 1 1 5E01888A
P 6950 3350
F 0 "Q13" H 7141 3304 50  0000 L CNN
F 1 "MMBT4403" H 7141 3395 50  0000 L CNN
F 2 "Package_TO_SOT_SMD:SOT-23" H 7150 3275 50  0001 L CIN
F 3 "https://www.fairchildsemi.com/datasheets/2N/2N3906.pdf" H 6950 3350 50  0001 L CNN
	1    6950 3350
	1    0    0    1   
$EndComp
$Comp
L Transistor_BJT:MMBT3906 Q12
U 1 1 5E01EEFE
P 6950 4400
F 0 "Q12" H 7141 4354 50  0000 L CNN
F 1 "MMBT4403" H 7141 4445 50  0000 L CNN
F 2 "Package_TO_SOT_SMD:SOT-23" H 7150 4325 50  0001 L CIN
F 3 "https://www.fairchildsemi.com/datasheets/2N/2N3906.pdf" H 6950 4400 50  0001 L CNN
	1    6950 4400
	1    0    0    1   
$EndComp
Wire Wire Line
	4750 3400 4750 3450
Connection ~ 4750 3450
Wire Wire Line
	4750 3450 5400 3450
$Comp
L power:+3V3 #PWR0124
U 1 1 5E0460EF
P 4750 4150
F 0 "#PWR0124" H 4750 4000 50  0001 C CNN
F 1 "+3V3" H 4765 4323 50  0000 C CNN
F 2 "" H 4750 4150 50  0001 C CNN
F 3 "" H 4750 4150 50  0001 C CNN
	1    4750 4150
	1    0    0    -1  
$EndComp
Wire Wire Line
	4750 4450 4750 4500
Connection ~ 4750 4500
Wire Wire Line
	4750 4500 5400 4500
NoConn ~ 8350 3850
$EndSCHEMATC
